{
	"code": 200,
	"response": {
		"data": [
			{
				"price": 90,
				"name": "Vanilla Icecream Scoop",
				"qty": 0,
				"imgLink": "https://www.spiceupthecurry.com/wp-content/uploads/2016/03/vanilla-ice-cream-recipe-16-500x500.jpg",
				"description": "Stir sugar, cream, and milk into a saucepan over low heat until sugar has dissolved. Heat just until mix is hot and a small ring of foam appears around the edge. Transfer cream mixture to a pourable container such as a large measuring cup. Stir in vanilla extract and chill mix thoroughly, at least 2 hours. (Overnight is best.) Pour cold ice cream mix into an ice cream maker, turn on the machine, and churn according to manufacturer's directions, 20 to 25 minutes."
			},
			{
				"price": 122,
				"name": "ButterScotch Icebar",
				"qty": 0,
				"imgLink": "https://cpimg.tistatic.com/05822311/b/4/Butterscotch-Cone-Ice-Cream-w300.jpg",
				"description": "Begin to whip the cream at full speed, with an electric beater or with the whipping attachment of the stand mixer. Timing will vary depending on the fat content in the cream. Both for amul fresh cream and amul whipping cream, it takes about 8 to 10 minutes. Also be careful while whipping and do not whip too much, as then the cream can get churned into butter.Whip till stiff peaks are formed. You can also whip till soft peaks. If using 25% fat cream, then you can whip till soft peaks."
			},
			{
				"price": 80,
				"name": "Chocolate Icecream",
				"qty": 0,
				"imgLink": "https://lh3.googleusercontent.com/LwFcKCcsq1N_fk34nojMA50kCwbdiLVeGmVgElCrWDAK5Jo3VeZZ9aBhLG1hB7IVdqeFvAusP4H7huS8tYCMNA=w1280-h1280-c-rj-v1-e365",
				"description": "Chocolate ice cream is generally made by blending cocoa powder along with the eggs, cream, vanilla, and sugar used to make vanilla ice cream. Sometimes chocolate liquor is used in addition to cocoa powder, or it is used exclusively, to create the chocolate flavor. Cocoa powder gives chocolate ice cream its brown color, and it is uncommon to add other colorings."
			},
			{
				"price": 115,
				"name": "PowderKeg Custord",
				"qty": 0,
				"imgLink": "https://www.cookwithmanali.com/wp-content/uploads/2019/06/Fruit-Custard-500x500.jpg",
				"description": "Custard is a variety of culinary preparations based on sweetened milk, cheese, or cream cooked with egg or egg yolk to thicken it, and sometimes also flour, corn starch, or gelatin. Depending on the recipe, custard may vary in consistency from a thin pouring sauce (crème anglaise) to the thick pastry cream (crème pâtissière) used to fill éclairs. The most common custards are used in custard desserts or dessert sauces and typically include sugar and vanilla; however, savory custards are also found, e.g., in quiche."
			},
			{
				"price": 210,
				"name": "Frozen Peanut Bar Icecream",
				"qty": 0,
				"imgLink": "https://www.bigbasket.com/media/uploads/p/l/40221120-2_1-the-brooklyn-creamery-chocolate-coated-ice-cream-bar-salted-peanut-butter-vegan-no-added-sugar.jpg",
				"description": "Using a handheld mixer, cream the peanut butter, sugar, salt, and vanilla in a large bowl until smooth. Add 1 cup of half-and-half and beat on low speed until well mixed. Add the rest of the half-and-half and the cream and whisk by hand—if you try to use your mixer you will end up with it splattering all over the kitchen. Pour the mixture into ice cream maker and process for 25 to 30 minutes, or according to the manufacturer's directions. The ice cream will be on the soft side but can be eaten right away or put into the freezer or harden up for a couple hours. Stored in an airtight container, the ice cream will keep at least a week in the freezer."
			}
		],
		"totalAmount": 0
	}
}